<?xml version="1.0" encoding="utf-8"?>
<!-- Generator: Adobe Illustrator 23.0.0, SVG Export Plug-In . SVG Version: 6.00 Build 0)  -->
<svg version="1.1" id="Capa_1" xmlns="http://www.w3.org/2000/svg" xmlns:xlink="http://www.w3.org/1999/xlink" x="0px" y="0px"
	 viewBox="0 0 57.2 57.2" style="enable-background:new 0 0 57.2 57.2;" xml:space="preserve">
<style type="text/css">
	.st0{fill:#EF983B;}
	.st1{fill:#8C3F07;}
	.st2{fill:#EF3829;}
	.st3{fill:#64BC0F;}
	.st4{fill:#422002;}
</style>
<g>
	<path class="st0" d="M38.6,0.8h-20c-8.2,0-14.8,6.4-14.8,14.3c0,1.9,1.6,3.4,3.5,3.4h42.6c1.9,0,3.5-1.5,3.5-3.4
		C53.4,7.2,46.8,0.8,38.6,0.8z"/>
	<path class="st1" d="M10.2,29.9H47c2,0,3.7,1.6,3.7,3.7V35c0,2-1.6,3.7-3.7,3.7H10.2c-2,0-3.7-1.6-3.7-3.7v-1.5
		C6.5,31.5,8.2,29.9,10.2,29.9z"/>
	<path class="st0" d="M49.9,38.7c1.9,0,3.5,1.5,3.5,3.4c0,7.9-6.6,14.3-14.8,14.3h-20c-8.2,0-14.8-6.4-14.8-14.3
		c0-1.9,1.6-3.4,3.5-3.4H49.9z"/>
	<path class="st2" d="M23.4,29.9v3.9c0,1.4,1.1,2.5,2.5,2.5l0,0h1.8c1.4,0,2.5,1.1,2.5,2.5l0,0v0.8c0,1.4,1.1,2.5,2.5,2.5
		c1.4,0,2.5,1.1,2.5,2.5l0,0v3c0,1.4,1.1,2.5,2.5,2.5l0,0h0.8c1.4,0,2.5-1.1,2.5-2.5l0,0V36.8c0-1.4,1.1-2.5,2.5-2.5h0.3
		c1.4,0,2.5-1.1,2.5-2.5l0,0v-1.9H23.4z"/>
	<path class="st2" d="M13.4,29.9v10.5c0,1.3,1.1,2.4,2.4,2.4l0,0h0.8c1.3,0,2.4-1.1,2.4-2.4l0,0V29.9H13.4z"/>
	<path class="st3" d="M56.3,24.2c-0.3-1.9-3-4.5-4.8-6.1c-0.5,0.3-1.1,0.4-1.7,0.4H7.3c-0.6,0-1.2-0.1-1.7-0.4
		c-1.8,1.6-4.5,4.2-4.8,6.1c-0.5,2.9,5-2.1,7.7-2.1c1.9,0,2.9,3,5.5,3c3.6,0,4.7-2.5,7.5-2.5c3.1,0,3.4,2.5,7,2.5s3.8-2.5,7-2.5
		c2.9,0,3.9,2.5,7.5,2.5c2.6,0,3.6-3,5.5-3C51.3,22.1,56.8,27.1,56.3,24.2z"/>
	<path class="st1" d="M48.6,22.1c-1.9,0-2.9,3-5.5,3c-3.6,0-4.7-2.5-7.5-2.5c-3.1,0-3.4,2.5-7,2.5s-3.8-2.5-7-2.5
		c-2.9,0-3.9,2.5-7.5,2.5c-2.6,0-3.6-3-5.5-3c-0.4,0-0.8,0.1-1.2,0.2c-0.6,0.7-0.9,1.5-0.9,2.4v1.5c0,2,1.6,3.7,3.7,3.7l0,0H47
		c2,0,3.7-1.6,3.7-3.7l0,0v-1.5c0-0.9-0.3-1.7-0.9-2.4C49.4,22.2,49,22.1,48.6,22.1L48.6,22.1z"/>
	<g>
		<path class="st4" d="M57.2,24.1c-0.2-1.5-1.7-3.5-4.3-5.9c0.8-0.8,1.3-1.9,1.3-3c0-8.3-7-15.1-15.6-15.1h-2.4
			c-0.5,0-0.8,0.4-0.8,0.8s0.4,0.8,0.8,0.8h2.4c7.7,0,13.9,6,13.9,13.4c0,1.4-1.2,2.6-2.7,2.5H7.3c-1.4,0-2.6-1.1-2.7-2.5
			c0-7.4,6.3-13.4,13.9-13.4h13.6c0.5,0,0.8-0.4,0.8-0.8S32.7,0,32.3,0H18.6C10,0,3,6.8,3,15.1c0,1.2,0.5,2.2,1.3,3
			c-2.6,2.4-4,4.4-4.3,5.9c-0.2,0.9,0.2,1.4,0.5,1.6c0.9,0.6,2.2-0.1,4.1-1.1C5,24.4,5.4,24.2,5.7,24c0,0.2-0.1,0.5-0.1,0.7v1.5
			c0,1.5,0.7,2.8,1.9,3.7c-1.2,0.8-1.9,2.2-1.9,3.7V35c0,1.1,0.4,2.1,1,2.9c-2.1,0.3-3.7,2-3.7,4.2c0,8.3,7,15.1,15.6,15.1h1.9
			c0.5,0,0.8-0.4,0.8-0.8s-0.4-0.8-0.8-0.8h-1.9c-7.7,0-13.9-6-13.9-13.4c0-1.4,1.2-2.6,2.7-2.5h5.2v0.8c0,1.8,1.4,3.2,3.2,3.2h0.8
			c1.8,0,3.2-1.4,3.2-3.2v-0.8h9.7l0,0c0,1.8,1.5,3.3,3.3,3.3c0.9,0,1.7,0.7,1.7,1.7v3c0,1.8,1.5,3.3,3.3,3.3h0.8
			c1.8,0,3.3-1.5,3.3-3.3v-8h8c1.4,0,2.6,1.1,2.7,2.5c0,7.4-6.3,13.4-13.9,13.4h-7.8c-0.5,0-0.8,0.4-0.8,0.8s0.4,0.8,0.8,0.8h7.8
			c8.6,0,15.6-6.8,15.6-15.1c0-2.1-1.6-3.9-3.7-4.2c0.7-0.8,1-1.8,1-2.9v-1.5c0-1.5-0.7-2.8-1.9-3.7c1.2-0.8,1.9-2.2,1.9-3.7v-1.5
			c0-0.2,0-0.5-0.1-0.7c0.4,0.2,0.8,0.4,1.1,0.6c1.4,0.8,2.5,1.4,3.3,1.4c0.3,0,0.6-0.1,0.8-0.2C57,25.5,57.3,25,57.2,24.1z
			 M10.2,37.9c-1.6,0-2.8-1.3-2.8-2.8v-1.5c0-1.6,1.3-2.8,2.8-2.8h2.3V38h-2.3V37.9z M18,40.3c0,0.9-0.7,1.5-1.5,1.5h-0.8
			c-0.9,0-1.5-0.7-1.5-1.5v-9.6H18V40.3z M19.7,30.7h2.9v3.1c0,1.8,1.5,3.3,3.3,3.3h1.8c0.6,0,1.1,0.3,1.4,0.7h-9.4
			C19.7,37.8,19.7,30.7,19.7,30.7z M40.2,47.6c0,0.9-0.7,1.7-1.7,1.7h-0.8c-0.9,0-1.7-0.7-1.7-1.7v-3c0-1.8-1.5-3.3-3.3-3.3
			c-0.9,0-1.7-0.7-1.7-1.7v-0.8c0,0,0,0,0-0.1l0,0v-0.1c-0.1-1.8-1.5-3.2-3.3-3.2h-1.8c-0.9,0-1.6-0.7-1.7-1.7v-3.1h21.2v1.1
			c0,0.9-0.7,1.7-1.7,1.7h-0.3c-1.8,0-3.3,1.5-3.3,3.3L40.2,47.6z M49.8,35c0,1.6-1.3,2.8-2.8,2.8h-5.1v-1.1c0-0.9,0.7-1.7,1.7-1.7
			h0.3c1.8,0,3.3-1.5,3.3-3.3v-1.1c1.5,0.1,2.7,1.3,2.7,2.8L49.8,35z M49.8,24.7v1.5c0,1.6-1.3,2.8-2.8,2.8H10.2
			c-1.6,0-2.8-1.3-2.8-2.8v-1.5c0-0.6,0.2-1.2,0.6-1.7c0.2-0.1,0.5-0.1,0.7-0.1c0.5,0,1,0.5,1.7,1.1c0.9,0.9,2.1,1.9,3.8,1.9l0,0
			c2.1,0,3.5-0.8,4.7-1.4c0.9-0.5,1.8-1,2.9-1c1.3,0,1.9,0.5,2.8,1c2.5,1.9,5.9,1.9,8.4,0c0.9-0.6,1.5-1,2.8-1c1.1,0,1.9,0.5,2.9,1
			c1.2,0.7,2.5,1.4,4.7,1.4l0,0c1.8,0,2.9-1.1,3.8-1.9c0.6-0.6,1.2-1.1,1.7-1.1c0.2,0,0.5,0,0.7,0.1C49.6,23.5,49.8,24.1,49.8,24.7
			L49.8,24.7z M53.4,23.1c-1-0.6-2.1-1.1-3.3-1.6c-0.1,0-0.1,0-0.2-0.1c-0.4-0.1-0.9-0.2-1.4-0.2c-1.2,0-2,0.8-2.8,1.5
			c-0.8,0.8-1.6,1.5-2.7,1.5c-1.7,0-2.7-0.6-3.8-1.2s-2.1-1.2-3.7-1.2c-1.4,0-2.7,0.5-3.7,1.3c-1.9,1.5-4.6,1.5-6.5,0
			c-1.1-0.8-2.4-1.3-3.7-1.3c-1.6,0-2.7,0.6-3.7,1.2c-1.1,0.6-2.1,1.2-3.8,1.2c-1.1,0-1.9-0.7-2.7-1.5s-1.6-1.5-2.8-1.5
			c-0.5,0-0.9,0.1-1.4,0.2H7.1c-1.1,0.4-2.2,1-3.3,1.6c-0.7,0.4-1.4,0.7-2.1,1.1c0.3-1.2,1.8-3,4.1-5.1c0.5,0.2,1,0.3,1.5,0.3h42.6
			c0.5,0,1-0.1,1.5-0.3c2.3,2.1,3.8,3.9,4.1,5.1C54.8,23.9,54.1,23.5,53.4,23.1L53.4,23.1z"/>
		<path class="st4" d="M26.8,55.5h-2.2c-0.5,0-0.8,0.4-0.8,0.8s0.4,0.8,0.8,0.8h2.2c0.5,0,0.8-0.4,0.8-0.8S27.3,55.5,26.8,55.5z"/>
		<path class="st4" d="M9.2,45.1c-0.2-0.4-0.6-0.7-1.1-0.5c-0.4,0.1-0.7,0.6-0.5,1c1.3,3.4,4,5.9,7.5,6.9c0.4,0.1,0.9-0.1,1-0.6
			c0.1-0.4-0.1-0.9-0.6-1l0,0C12.6,50.1,10.2,47.9,9.2,45.1z"/>
		<path class="st4" d="M45,13.1c0.5,0,0.8-0.4,0.8-0.8c0-0.2-0.1-0.4-0.2-0.6l-1-1c-0.3-0.3-0.9-0.4-1.2,0c-0.3,0.3-0.4,0.9,0,1.2
			l0,0l1,1C44.6,13,44.8,13.1,45,13.1z"/>
		<path class="st4" d="M11.5,11.9l-0.7,1c-0.3,0.4-0.2,0.9,0.2,1.2s0.9,0.2,1.2-0.2l0.7-1c0.3-0.4,0.2-0.9-0.2-1.2
			S11.8,11.5,11.5,11.9z"/>
		<path class="st4" d="M29.3,12c-0.4,0.3-0.5,0.8-0.2,1.2l0,0l0.5,0.6c0.3,0.4,0.8,0.5,1.2,0.2c0.4-0.3,0.5-0.8,0.2-1.2l0,0
			l-0.5-0.6C30.2,11.8,29.6,11.8,29.3,12z"/>
		<path class="st4" d="M21.9,5.7c-0.5,0-0.8,0.4-0.8,0.8c0,0.5,0.4,0.8,0.8,0.8h1.3c0.5,0,0.8-0.4,0.8-0.8c0-0.5-0.4-0.8-0.8-0.8
			H21.9z"/>
		<path class="st4" d="M35,8.4c0.1,0.1,0.2,0.1,0.4,0.1c0.3,0,0.6-0.2,0.8-0.5l0.5-1.1c0.2-0.4,0-0.9-0.4-1.1s-0.9,0-1.1,0.4
			l-0.5,1.1C34.4,7.7,34.6,8.2,35,8.4L35,8.4z"/>
	</g>
</g>
</svg>
