<?xml version="1.0" encoding="utf-8"?>
<!-- Generator: Adobe Illustrator 23.0.0, SVG Export Plug-In . SVG Version: 6.00 Build 0)  -->
<svg version="1.1" id="Camada_1" xmlns="http://www.w3.org/2000/svg" xmlns:xlink="http://www.w3.org/1999/xlink" x="0px" y="0px"
	 viewBox="0 0 1689.8 974.4" style="enable-background:new 0 0 1689.8 974.4;" xml:space="preserve">
<style type="text/css">
	.st0{opacity:0.1;fill:none;stroke:#E7EAF3;stroke-width:3;stroke-miterlimit:10;enable-background:new    ;}
	.st1{fill:#E4B021;}
	.st2{opacity:0.5;}
	.st3{fill:#FFFFFF;}
	.st4{opacity:0.5;fill:#FFFFFF;}
	.st5{clip-path:url(#SVGID_2_);fill:#FFFFFF;}
	.st6{clip-path:url(#SVGID_4_);fill:#FFFFFF;}
</style>
<polygon class="st0" points="230.4,18.5 15.8,440.1 313.2,447.2 452.3,265.2 "/>
<polygon class="st0" points="15.8,440.1 69.5,726.4 315.9,668.7 313.2,447.2 "/>
<polygon class="st0" points="69.5,726.4 51.1,956.7 383.3,962.6 315.9,668.7 "/>
<polygon class="st0" points="383.3,962.6 492,785.8 632.5,760.7 713.9,924.9 "/>
<polyline class="st0" points="632.5,760.7 778.4,580.9 765.9,351 452.3,265.2 649,95.1 1089.9,48.1 765.9,351 649,95.1 "/>
<polyline class="st0" points="1479,151.6 1307.4,403.9 1248.2,644.3 1388.2,760.7 1677.1,616.3 1479,151.6 1089.9,48.1 
	1307.4,403.9 "/>
<polyline class="st0" points="765.9,351 1076.5,671.2 1002.5,829.6 1388.2,760.7 1248.2,644.3 1076.5,671.2 "/>
<circle class="st1" cx="765.9" cy="351" r="28.8"/>
<circle class="st1" cx="649" cy="95.1" r="18.5"/>
<circle class="st1" cx="452.3" cy="265.2" r="18.5"/>
<circle class="st1" cx="313.2" cy="447.2" r="18.5"/>
<circle class="st1" cx="230.4" cy="18.5" r="18.5"/>
<circle class="st1" cx="15.8" cy="440.1" r="15.8"/>
<circle class="st1" cx="315.9" cy="668.7" r="10"/>
<circle class="st1" cx="69.5" cy="726.4" r="8.6"/>
<circle class="st1" cx="51.1" cy="956.7" r="11.7"/>
<circle class="st1" cx="383.3" cy="962.6" r="11.7"/>
<circle class="st1" cx="492" cy="785.8" r="18.7"/>
<circle class="st1" cx="632.5" cy="760.7" r="12.4"/>
<circle class="st1" cx="713.9" cy="924.9" r="12.4"/>
<circle class="st1" cx="778.4" cy="580.9" r="12.4"/>
<circle class="st1" cx="1076.5" cy="671.2" r="15.7"/>
<circle class="st1" cx="1002.5" cy="826.5" r="10.2"/>
<circle class="st1" cx="1388.2" cy="760.7" r="17.3"/>
<circle class="st1" cx="1248.2" cy="644.3" r="12.8"/>
<circle class="st1" cx="1307.4" cy="403.9" r="17.7"/>
<circle class="st1" cx="1479" cy="151.6" r="17.7"/>
<circle class="st1" cx="1089.9" cy="48.1" r="12.5"/>
<circle class="st1" cx="1677.1" cy="616.3" r="12.8"/>
<g class="st2">
	<path class="st3" d="M1319.3,412.2c0-1.3-0.7-2.4-1.8-3c0.1-0.5,0.2-0.9,0.2-1.4c0-1.9-1.2-3.6-3-4.3l-0.1,0v-0.7
		c0.2,0.1,0.5,0.2,0.8,0.2h3.1v-3.1h-3.1c-0.3,0-0.5,0.1-0.8,0.2v-0.2c0-0.6-0.3-1.2-0.8-1.6c-0.1-0.6-0.7-1.1-1.3-1.1l-4.7,0
		c0.6-0.5,0.9-1.2,1-1.9h1.2c0.6,0,1.2-0.5,1.2-1.2c0-0.6-0.5-1.2-1.2-1.2h-1.8c-0.6-0.7-1.5-1.2-2.4-1.2c-1.7,0-3.1,1.4-3.1,3.1
		c0,1.1,0.6,2.1,1.6,2.7c-0.8,0.4-1.4,1.1-1.7,2h-6c-0.6,0-1.2,0.5-1.2,1.2v4.6c0,0.6,0.5,1.2,1.2,1.2h1.2c-0.5,0.5-0.8,1.2-0.8,1.9
		v0.8c-0.5,0.4-0.8,0.9-0.8,1.5c0,0.8,0.5,1.5,1.2,1.8c0.1,1.8,1.6,3.2,3.5,3.2c1.8,0,3.3-1.4,3.5-3.1h7.4c0.2,1.7,1.7,3.1,3.5,3.1
		s3.3-1.4,3.5-3.1h0.8V412.2z M1318.5,411.8h-2.9l0.8-0.8c0.3-0.3,0.6-0.7,0.8-1.1C1317.9,410.3,1318.4,411,1318.5,411.8
		L1318.5,411.8z M1311.5,410.4l-1.1-4.7c-0.3-1.2-1.3-2.1-2.5-2.3l-0.2,0l0-3.5h4.6v12h-1c0.2-0.3,0.3-0.6,0.3-0.9v-0.1
		C1311.6,410.7,1311.6,410.6,1311.5,410.4L1311.5,410.4z M1316.1,412.6c-0.2,0.4-0.6,0.8-1.1,0.8s-0.9-0.3-1.1-0.8H1316.1z
		 M1317,407.8c0,0.1,0,0.1,0,0.2c-0.8,0-1.5-0.9-1.5-1.9c0-0.4,0.1-0.8,0.3-1.1C1316.5,405.6,1317,406.7,1317,407.8L1317,407.8z
		 M1315.1,404.5c-0.3,0.5-0.4,1-0.4,1.5c0,1.4,1,2.6,2.2,2.7c-0.2,0.6-0.5,1.2-1,1.7l-1.4,1.4h-1.4v-12.1c0.2-0.1,0.4-0.3,0.6-0.5
		c0.1,0.2,0.2,0.4,0.2,0.6v4.1l0.6,0.2C1314.7,404.3,1314.9,404.4,1315.1,404.5L1315.1,404.5z M1317.8,402.2h-0.8v-1.5h0.8V402.2z
		 M1315.4,400.6h0.8v1.5h-0.8c-0.4,0-0.8-0.3-0.8-0.8S1315,400.6,1315.4,400.6L1315.4,400.6z M1310.4,394.1c0,0.2-0.2,0.4-0.4,0.4
		h-3.2l0.1-0.1c0.2-0.4,0.6-0.6,1-0.6h2.1C1310.3,393.7,1310.4,393.8,1310.4,394.1L1310.4,394.1z M1305.8,392.5c0.5,0,1,0.2,1.4,0.5
		c-0.5,0.2-0.8,0.5-1.1,0.9l-0.2,0.5h-2.4C1303.7,393.4,1304.6,392.5,1305.8,392.5L1305.8,392.5z M1303.5,395.2h4.6
		c-0.2,1.1-1.1,1.9-2.3,1.9C1304.6,397.1,1303.7,396.3,1303.5,395.2L1303.5,395.2z M1303.1,400.6c0-1.5,1.2-2.7,2.7-2.7l6.8,0
		c0.3,0,0.6,0.3,0.6,0.6c0,0.3-0.3,0.6-0.6,0.6h-7.1v0.8h1.5l0,4.2l0.9,0.1c0.9,0.2,1.7,0.8,1.9,1.8l1.1,4.7c0,0.1,0,0.1,0,0.2v0.1
		c0,0.2-0.1,0.5-0.3,0.6c-0.2,0.2-0.4,0.3-0.6,0.3c-0.4,0-0.8-0.3-0.9-0.7l-1-4c-0.2-0.9-1-1.5-1.9-1.5l-1.1,0
		c-1.1,0-1.9-0.9-1.9-1.9V400.6z M1308.5,411.8h-1.5v-3.5c0-0.8-0.3-1.4-0.8-1.9c0.5,0,1,0.4,1.1,0.9l1,4
		C1308.3,411.5,1308.4,411.7,1308.5,411.8L1308.5,411.8z M1298.5,400.2h1.5v1.5h-1.5V400.2z M1296.5,405.6c-0.2,0-0.4-0.2-0.4-0.4
		v-4.6c0-0.2,0.2-0.4,0.4-0.4h1.2v2.3h3.1v-2.3h1.6c0,0.1,0,0.3,0,0.4v3.1c0,0.8,0.3,1.4,0.8,1.9H1296.5z M1300.8,414.9
		c-1.4,0-2.5-1-2.7-2.3h0.8c0.2,0.9,1,1.5,1.9,1.5s1.7-0.7,1.9-1.5h0.8C1303.3,413.9,1302.1,414.9,1300.8,414.9L1300.8,414.9z
		 M1299.7,412.6h2.2c-0.2,0.4-0.6,0.8-1.1,0.8C1300.3,413.4,1299.8,413,1299.7,412.6L1299.7,412.6z M1304.6,411.8h-6.6
		c-0.6,0-1.2-0.5-1.2-1.2c0-0.6,0.5-1.2,1.2-1.2h5.4c0.6,0,1.2,0.5,1.2,1.2V411.8z M1303.5,408.7h-5.4c-0.1,0-0.3,0-0.4,0v-0.4
		c0-1.1,0.9-1.9,1.9-1.9h4.6c1.1,0,1.9,0.9,1.9,1.9v3.5h-0.8v-1.2C1305.4,409.6,1304.5,408.7,1303.5,408.7L1303.5,408.7z
		 M1315.1,414.9c-1.4,0-2.5-1-2.7-2.3h0.8c0.2,0.9,1,1.5,1.9,1.5s1.7-0.7,1.9-1.5h0.8C1317.5,413.9,1316.4,414.9,1315.1,414.9
		L1315.1,414.9z M1315.1,414.9"/>
	<rect x="1299.2" y="410.3" class="st3" width="0.8" height="0.8"/>
	<rect x="1297.7" y="410.3" class="st3" width="0.8" height="0.8"/>
	<rect x="1300.8" y="410.3" class="st3" width="0.8" height="0.8"/>
</g>
<g class="st2">
	<path class="st3" d="M27,447.2c0-1.2-0.7-2.3-1.7-2.9c0.1-0.4,0.2-0.9,0.2-1.4c0-1.8-1.2-3.5-2.9-4.1l-0.1,0v-0.7
		c0.2,0.1,0.5,0.2,0.7,0.2h3v-3h-3c-0.3,0-0.5,0.1-0.7,0.2v-0.2c0-0.6-0.3-1.2-0.8-1.5c-0.1-0.6-0.6-1.1-1.3-1.1l-4.6,0
		c0.5-0.5,0.9-1.1,1-1.9H18c0.6,0,1.1-0.5,1.1-1.1c0-0.6-0.5-1.1-1.1-1.1h-1.8c-0.6-0.7-1.4-1.1-2.3-1.1c-1.6,0-3,1.3-3,3
		c0,1.1,0.6,2.1,1.5,2.6c-0.8,0.4-1.4,1.1-1.7,1.9H5c-0.6,0-1.1,0.5-1.1,1.1v4.5c0,0.6,0.5,1.1,1.1,1.1h1.2
		c-0.5,0.5-0.8,1.1-0.8,1.9v0.8c-0.5,0.3-0.7,0.9-0.7,1.5c0,0.8,0.5,1.4,1.1,1.7c0.1,1.7,1.6,3.1,3.3,3.1c1.7,0,3.2-1.3,3.3-3h7.1
		c0.2,1.7,1.6,3,3.3,3s3.2-1.3,3.3-3H27V447.2z M26.2,446.9h-2.8l0.8-0.8c0.3-0.3,0.6-0.7,0.8-1.1C25.6,445.4,26.1,446.1,26.2,446.9
		L26.2,446.9z M19.5,445.5l-1.1-4.5c-0.3-1.2-1.2-2.1-2.4-2.3l-0.2,0l0-3.4h4.5v11.6h-1c0.2-0.3,0.3-0.6,0.3-0.9v-0.1
		C19.5,445.8,19.5,445.6,19.5,445.5L19.5,445.5z M23.9,447.6c-0.2,0.4-0.6,0.7-1.1,0.7s-0.9-0.3-1.1-0.7H23.9z M24.7,442.9
		c0,0.1,0,0.1,0,0.2c-0.8,0-1.5-0.8-1.5-1.9c0-0.4,0.1-0.7,0.3-1.1C24.3,440.9,24.7,441.9,24.7,442.9L24.7,442.9z M22.9,439.8
		c-0.3,0.4-0.4,1-0.4,1.5c0,1.4,0.9,2.5,2.1,2.6c-0.2,0.6-0.5,1.2-1,1.7l-1.3,1.3H21v-11.7c0.2-0.1,0.4-0.3,0.5-0.5
		c0.1,0.2,0.2,0.4,0.2,0.6v4l0.6,0.2C22.5,439.6,22.7,439.7,22.9,439.8L22.9,439.8z M25.5,437.5h-0.7V436h0.7V437.5z M23.2,436H24
		v1.5h-0.7c-0.4,0-0.7-0.3-0.7-0.7S22.8,436,23.2,436L23.2,436z M18.4,429.7c0,0.2-0.2,0.4-0.4,0.4h-3.1l0.1-0.1
		c0.2-0.4,0.6-0.6,1-0.6H18C18.2,429.3,18.4,429.5,18.4,429.7L18.4,429.7z M13.9,428.2c0.5,0,1,0.2,1.4,0.5c-0.4,0.2-0.8,0.5-1,0.9
		l-0.2,0.5h-2.3C11.9,429,12.8,428.2,13.9,428.2L13.9,428.2z M11.7,430.8h4.4c-0.2,1.1-1.1,1.9-2.2,1.9
		C12.8,432.7,11.9,431.9,11.7,430.8L11.7,430.8z M11.3,436c0-1.4,1.2-2.6,2.6-2.6l6.5,0c0.3,0,0.6,0.3,0.6,0.6s-0.3,0.6-0.6,0.6
		h-6.9v0.7H15l0,4l0.8,0.1c0.9,0.1,1.6,0.8,1.8,1.7l1.1,4.5c0,0.1,0,0.1,0,0.2v0.1c0,0.2-0.1,0.5-0.3,0.6c-0.2,0.2-0.4,0.3-0.6,0.3
		c-0.4,0-0.8-0.3-0.9-0.7l-1-3.9c-0.2-0.8-1-1.4-1.8-1.4l-1.1,0c-1,0-1.9-0.8-1.9-1.9V436z M16.5,446.9H15v-3.4
		c0-0.7-0.3-1.4-0.8-1.9c0.5,0,1,0.3,1.1,0.8l1,3.9C16.3,446.6,16.4,446.7,16.5,446.9L16.5,446.9z M6.8,435.7h1.5v1.5H6.8V435.7z
		 M5,440.9c-0.2,0-0.4-0.2-0.4-0.4V436c0-0.2,0.2-0.4,0.4-0.4h1.1v2.2h3v-2.2h1.5c0,0.1,0,0.2,0,0.4v3c0,0.7,0.3,1.4,0.8,1.9H5z
		 M9.1,449.8c-1.3,0-2.4-1-2.6-2.2h0.8c0.2,0.9,0.9,1.5,1.8,1.5c0.9,0,1.7-0.6,1.8-1.5h0.8C11.5,448.9,10.4,449.8,9.1,449.8
		L9.1,449.8z M8,447.6h2.1c-0.2,0.4-0.6,0.7-1.1,0.7C8.6,448.4,8.2,448,8,447.6L8,447.6z M12.8,446.9H6.4c-0.6,0-1.1-0.5-1.1-1.1
		s0.5-1.1,1.1-1.1h5.2c0.6,0,1.1,0.5,1.1,1.1V446.9z M11.7,443.9H6.4c-0.1,0-0.3,0-0.4,0v-0.4c0-1,0.8-1.9,1.9-1.9h4.5
		c1,0,1.9,0.8,1.9,1.9v3.4h-0.7v-1.1C13.5,444.7,12.7,443.9,11.7,443.9L11.7,443.9z M22.9,449.8c-1.3,0-2.4-1-2.6-2.2H21
		c0.2,0.9,0.9,1.5,1.8,1.5s1.7-0.6,1.8-1.5h0.8C25.3,448.9,24.2,449.8,22.9,449.8L22.9,449.8z M22.9,449.8"/>
	<rect x="7.6" y="445.4" class="st3" width="0.7" height="0.7"/>
	<rect x="6.1" y="445.4" class="st3" width="0.7" height="0.7"/>
	<rect x="9.1" y="445.4" class="st3" width="0.7" height="0.7"/>
</g>
<path class="st4" d="M322.6,444.9l-0.5-6.2c-0.1-1.4-1.3-2.5-2.7-2.5h-12.2c-1.4,0-2.6,1.1-2.7,2.5l-0.5,6.2
	c-1.5,0.1-2.4,1.3-2.4,2.6v6.7c0,0.4,0.3,0.7,0.7,0.7h0.5v2.1c0,0.4,0.3,0.7,0.7,0.7h3.5c0.4,0,0.7-0.3,0.7-0.7v-2.1h11v2.1
	c0,0.4,0.3,0.7,0.7,0.7h3.5c0.4,0,0.7-0.3,0.7-0.7v-2.1h0.5c0.4,0,0.7-0.3,0.7-0.7v-6.7C325.1,446.5,324.4,445.1,322.6,444.9z
	 M306,438.8c0-0.7,0.6-1.2,1.2-1.2h12.2c0.6,0,1.2,0.5,1.2,1.2l0.4,5.8c-5.2-0.7-10.4-0.7-15.6,0L306,438.8z M306.4,456.3h-2.1v-1.4
	h2.1V456.3z M322.4,456.3h-2.1v-1.4h2.1V456.3z M323.6,453.5h-20.5v-6c0-0.5,0.4-1,0.9-1.1c6.2-1.1,12.4-1.1,18.6,0
	c0.5,0.1,0.9,0.6,0.9,1.1L323.6,453.5L323.6,453.5z"/>
<g class="st2">
	<path class="st3" d="M757.2,342.6c0.4,0,0.8-0.3,0.8-0.8s-0.3-0.8-0.8-0.8s-0.8,0.3-0.8,0.8S756.7,342.6,757.2,342.6z"/>
	<path class="st3" d="M764.1,355.4h-2.3v-2.3c0-0.4-0.3-0.8-0.8-0.8c-0.4,0-0.8,0.3-0.8,0.8v2.3h-2.3c-0.4,0-0.8,0.3-0.8,0.8
		s0.3,0.8,0.8,0.8h2.3v2.3c0,0.4,0.3,0.8,0.8,0.8c0.4,0,0.8-0.3,0.8-0.8V357h2.3c0.4,0,0.8-0.3,0.8-0.8S764.5,355.4,764.1,355.4z"/>
	<path class="st3" d="M776.4,353.9l-3.1,1.8V349c0-0.8-0.3-1.6-0.8-2.3l-3.8-5.1v-2.2c0.9-0.3,1.5-1.2,1.5-2.2v-3.5
		c0-1.3-1-2.3-2.3-2.3h-13.8c-1.3,0-2.3,1-2.3,2.3v3.5c0,1,0.6,1.9,1.5,2.2v2.2l-3.8,5.1c-0.5,0.7-0.8,1.5-0.8,2.3v14.8
		c0,2.1,1.7,3.8,3.8,3.8h12.3c1.7,2.9,5.4,3.8,8.3,2.2l9.3-5.4c2.9-1.7,3.9-5.4,2.2-8.4C783,353.2,779.3,352.2,776.4,353.9z
		 M764.8,361.6h-14.5v-11.3h21.4v6.3l-4.6,2.7C766.1,359.8,765.3,360.6,764.8,361.6z M753.3,333.7c0-0.4,0.3-0.8,0.8-0.8h13.8
		c0.4,0,0.8,0.3,0.8,0.8v3.5c0,0.4-0.3,0.8-0.8,0.8h-13.8c-0.4,0-0.8-0.3-0.8-0.8V333.7z M754.7,342.3c0.1-0.1,0.2-0.3,0.2-0.5v-2.3
		h12.3v1.5h-6.9c-0.4,0-0.8,0.3-0.8,0.8s0.3,0.8,0.8,0.8h7.3l3.8,5c0.2,0.3,0.4,0.7,0.4,1.1h-21.4c0-0.4,0.2-0.8,0.4-1.1
		L754.7,342.3z M750.3,363.8v-0.8h13.9c-0.2,1-0.2,2.1,0,3.1h-11.7C751.3,366.1,750.3,365.1,750.3,363.8z M772.4,368.5
		c-2.2,1.3-5,0.5-6.3-1.7c-1.3-2.2-0.5-5,1.7-6.3l4.2-2.4l4.6,8L772.4,368.5z M781.7,363.2l-3.8,2.2l-4.6-8l3.8-2.2
		c2.2-1.3,5-0.5,6.3,1.7C784.7,359.1,783.9,361.9,781.7,363.2z"/>
</g>
<g class="st2">
	<path class="st3" d="M225.1,12.5c0.3,0,0.5-0.2,0.5-0.5c0-0.3-0.2-0.5-0.5-0.5s-0.5,0.2-0.5,0.5C224.5,12.3,224.8,12.5,225.1,12.5z
		"/>
	<path class="st3" d="M229.8,21.4h-1.6v-1.6c0-0.3-0.2-0.5-0.5-0.5s-0.5,0.2-0.5,0.5v1.6h-1.6c-0.3,0-0.5,0.2-0.5,0.5
		s0.2,0.5,0.5,0.5h1.6v1.6c0,0.3,0.2,0.5,0.5,0.5s0.5-0.2,0.5-0.5v-1.6h1.6c0.3,0,0.5-0.2,0.5-0.5S230.1,21.4,229.8,21.4z"/>
	<path class="st3" d="M238.4,20.3l-2.2,1.2V17c0-0.6-0.2-1.1-0.5-1.6l-2.7-3.5v-1.5c0.6-0.2,1.1-0.8,1.1-1.5V6.4
		c0-0.9-0.7-1.6-1.6-1.6h-9.6c-0.9,0-1.6,0.7-1.6,1.6v2.4c0,0.7,0.4,1.3,1.1,1.5v1.5l-2.7,3.5c-0.3,0.5-0.5,1-0.5,1.6v10.3
		c0,1.5,1.2,2.7,2.7,2.7h8.5c1.2,2,3.8,2.7,5.8,1.5l6.4-3.7c2-1.2,2.7-3.8,1.6-5.8C243,19.8,240.4,19.2,238.4,20.3z M230.3,25.7
		h-10.1v-7.8h14.9v4.3l-3.2,1.9C231.3,24.4,230.7,25,230.3,25.7z M222.4,6.4c0-0.3,0.2-0.5,0.5-0.5h9.6c0.3,0,0.5,0.2,0.5,0.5v2.4
		c0,0.3-0.2,0.5-0.5,0.5h-9.6c-0.3,0-0.5-0.2-0.5-0.5V6.4z M223.3,12.3c0.1-0.1,0.1-0.2,0.1-0.3v-1.6h8.5v1.1h-4.8
		c-0.3,0-0.5,0.2-0.5,0.5s0.2,0.5,0.5,0.5h5.1l2.6,3.5c0.2,0.2,0.3,0.5,0.3,0.8h-14.9c0-0.3,0.1-0.6,0.3-0.8L223.3,12.3z
		 M220.3,27.3v-0.5h9.7c-0.2,0.7-0.2,1.4,0,2.1h-8.1C221,28.9,220.3,28.1,220.3,27.3z M235.7,30.5c-1.5,0.9-3.5,0.4-4.4-1.2
		c-0.9-1.5-0.3-3.5,1.2-4.4l2.9-1.7l3.2,5.5L235.7,30.5z M242.1,26.8l-2.6,1.5l-3.2-5.5l2.6-1.5c1.5-0.9,3.5-0.4,4.4,1.2
		C244.2,24,243.6,25.9,242.1,26.8z"/>
</g>
<g class="st2">
	<path class="st3" d="M465,259.2c0-1.2-1-2.2-2.2-2.2h-0.7v-2.2c0-1.3-1-2.3-2.3-2.3h-14.9c-1.3,0-2.3,1-2.3,2.3v2.2h-0.7
		c-1.2,0-2.2,1-2.2,2.2v3.7h3v11.5h1v1.3c0,1.2,1,2.2,2.2,2.2h1c1.2,0,2.2-1,2.2-2.2v-1.3h6.5v1.3c0,1.2,1,2.2,2.2,2.2h1
		c1.2,0,2.2-1,2.2-2.2v-1.3h1v-11.5h3V259.2z M444.8,253.9h14.9c0.4,0,0.8,0.4,0.8,0.8v0.7H444v-0.7
		C444,254.3,444.4,253.9,444.8,253.9L444.8,253.9z M441,261.4v-2.3c0-0.4,0.3-0.7,0.7-0.7h0.7v3H441z M460.6,271.5v1.5h-4.8v-3h-7v3
		H444v-1.5h3V270h-3v-2.9c2.7,0.4,5.5,0.6,8.3,0.6s5.5-0.2,8.3-0.6v2.9h-3v1.5H460.6z M454.3,273h-4v-1.5h4V273z M447.5,275.7
		c0,0.4-0.3,0.7-0.7,0.7h-1c-0.4,0-0.7-0.3-0.7-0.7v-1.3h2.5V275.7z M459.6,275.7c0,0.4-0.3,0.7-0.7,0.7h-1c-0.4,0-0.7-0.3-0.7-0.7
		v-1.3h2.5V275.7z M460.6,265.6c-5.5,0.8-11,0.8-16.5,0v-8.7h16.5V265.6z M463.6,261.4h-1.5v-3h0.7c0.4,0,0.7,0.3,0.7,0.7V261.4z
		 M463.6,261.4"/>
</g>
<g class="st2">
	<g>
		<defs>
			<rect id="SVGID_1_" x="1468.5" y="139.7" width="21" height="22.1"/>
		</defs>
		<clipPath id="SVGID_2_">
			<use xlink:href="#SVGID_1_"  style="overflow:visible;"/>
		</clipPath>
		<path class="st5" d="M1489,158.2c0.2,0,0.4-0.2,0.4-0.4v-12.5c0-0.1-0.1-0.3-0.2-0.3c-0.1-0.1-0.3-0.1-0.4,0l-0.2,0.1
			c-0.1-0.6-0.3-1.1-0.8-1.6c0.1,0,0.2,0,0.3-0.1l0.2,0c0.1,0,0.2-0.1,0.2-0.1c0.1-0.1,0.1-0.2,0.1-0.3c0-0.1-0.1-0.2-0.1-0.2
			c-0.1-0.1-0.2-0.1-0.3-0.1l-0.2,0c-0.3,0-0.6,0.1-0.9,0.3c-0.7-0.3-1.4-0.4-2.1-0.2c0.2-0.3,0.3-0.6,0.3-0.9
			c0-0.8-0.7-1.5-1.5-1.5c-0.1,0-0.2,0-0.3,0c-0.3-0.5-0.9-0.8-1.5-0.8s-1.2,0.3-1.5,0.8c-0.1,0-0.2,0-0.3,0c-0.8,0-1.5,0.7-1.5,1.5
			c0,0.1,0,0.2,0,0.3c-0.4,0.3-0.7,0.7-0.8,1.2c-0.1,0.5,0.1,1,0.4,1.4c-0.1,0.1-0.1,0.1-0.1,0.2l-1.8-3.1l-0.4-0.6
			c-0.4-0.8-1.2-1.3-2-1.5c-0.8-0.2-1.8-0.1-2.5,0.3c-0.9,0.5-1.2,1.6-0.7,2.5l0.4,0.7c0.1,0.2,0.3,0.2,0.5,0.1
			c0.2-0.1,0.2-0.3,0.1-0.5l-0.4-0.7c-0.1-0.3-0.2-0.6-0.1-0.8c0.1-0.3,0.3-0.5,0.5-0.7c0.6-0.3,1.3-0.4,2-0.3
			c0.7,0.2,1.2,0.6,1.6,1.2l0.2,0.3l-1.3,0.7c-0.2,0.1-0.2,0.3-0.1,0.5c0.1,0.2,0.3,0.2,0.5,0.1l1.3-0.7l0.6,1l-1.3,0.7
			c-0.1,0.1-0.2,0.2-0.2,0.4c0,0.1,0.1,0.3,0.3,0.3l-1.6,1.1l-1.1-2c0-0.1-0.1-0.1-0.2-0.2c-0.1,0-0.2,0-0.3,0
			c-0.1,0-0.1,0.1-0.2,0.2c0,0.1,0,0.2,0,0.3l0.6,1l-1-0.7c-0.1-0.1-0.3-0.1-0.4,0c-0.1,0.1-0.2,0.2-0.2,0.3v1.8
			c0,0.2,0.2,0.4,0.4,0.4s0.4-0.2,0.4-0.4V146l1.6,1.1c0.1,0.1,0.3,0.1,0.4,0l2-1.3l2,1.3c0.1,0.1,0.3,0.1,0.4,0l2-1.3l2,1.3
			c0.1,0.1,0.3,0.1,0.4,0l1.6-1.1v15.1h-4.8c-0.2,0-0.4,0.2-0.4,0.4s0.2,0.4,0.4,0.4h9.6c0.2,0,0.4-0.2,0.4-0.4v-2.2
			c0-0.2-0.2-0.4-0.4-0.4s-0.4,0.2-0.4,0.4v1.3l-1.5-1.5v-2.1c0-0.2-0.2-0.4-0.4-0.4s-0.4,0.2-0.4,0.4v2.1l-1.5,1.5V146l1.5,1v4.6
			c0,0.2,0.2,0.4,0.4,0.4s0.4-0.2,0.4-0.4V147l1.5-1v11.8C1488.7,158,1488.8,158.2,1489,158.2L1489,158.2z M1486.5,143.5
			c-0.1,0.1-0.2,0.3-0.3,0.5c-0.1,0.1-0.1,0.2,0,0.3c0,0.1,0.1,0.2,0.2,0.2c0.1,0.1,0.2,0.1,0.3,0c0.1,0,0.2-0.1,0.2-0.2
			c0.1-0.2,0.2-0.3,0.4-0.5c0.5,0.4,0.8,1,0.8,1.6c0,0,0,0.1,0,0.1l-1.1,0.7l-2-1.3c-0.1,0-0.1-0.1-0.2-0.1c0-0.3-0.1-0.5-0.2-0.7
			c0-0.1,0.1-0.1,0.1-0.2C1485,143.5,1485.8,143.3,1486.5,143.5L1486.5,143.5z M1476,145c0,0-0.1,0-0.1,0l1-0.6l1.1,1.9l0,0
			L1476,145z M1482.4,146.3l-1.5-1c0.4-0.8,1.1-1.4,1.9-1.7c0.1,0,0.2-0.1,0.2-0.2c0-0.1,0-0.2,0-0.3c0-0.1-0.1-0.2-0.2-0.2
			c-0.1,0-0.2,0-0.3,0c-0.4,0.2-0.8,0.4-1.2,0.7c0-0.5,0-0.9-0.1-1.3c0-0.1-0.1-0.2-0.2-0.2c-0.1-0.1-0.2-0.1-0.3,0
			c-0.1,0-0.2,0.1-0.2,0.2c-0.1,0.1-0.1,0.2,0,0.3c0.2,0.8,0.1,1.7-0.3,2.5c-0.1,0-0.2,0-0.3,0l-1.2,0.8c0-0.2,0.2-0.5,0.4-0.6
			c0.1-0.1,0.1-0.2,0.1-0.3c0-0.1,0-0.2-0.1-0.3c-0.2-0.2-0.4-0.5-0.4-0.8c0-0.4,0.3-0.8,0.6-1c0.1,0,0.2-0.1,0.2-0.2
			c0-0.1,0-0.2,0-0.3c-0.1-0.1-0.1-0.2-0.1-0.3c0-0.3,0.1-0.5,0.4-0.6c0.2-0.1,0.5-0.1,0.7,0c0.1,0,0.2,0.1,0.3,0
			c0.1,0,0.2-0.1,0.2-0.2c0.2-0.4,0.6-0.6,1-0.6s0.8,0.3,1,0.6c0,0.1,0.1,0.2,0.2,0.2c0.1,0,0.2,0,0.3,0c0.2-0.1,0.4-0.1,0.6,0
			c0.2,0.1,0.3,0.2,0.4,0.4c0.1,0.2,0.1,0.4,0,0.6c-0.1,0.2-0.3,0.3-0.5,0.4c-0.1,0-0.2,0.1-0.2,0.2c0,0.1-0.1,0.2,0,0.3
			c0,0.1,0.1,0.2,0.1,0.3c0,0.2-0.1,0.4-0.2,0.5c-0.1,0.1-0.1,0.4,0,0.5c0.2,0.2,0.2,0.5,0.1,0.8c-0.1,0.3-0.4,0.4-0.7,0.4
			c0,0,0,0-0.1,0c-0.1,0-0.2,0-0.3,0.1c-0.1,0.1-0.1,0.2-0.1,0.3L1482.4,146.3z M1486.8,159.8l1.3,1.3h-2.6L1486.8,159.8z
			 M1486.8,159.8"/>
		<path class="st5" d="M1486.8,153.4c-0.2,0-0.4,0.2-0.4,0.4v1.5c0,0.2,0.2,0.4,0.4,0.4s0.4-0.2,0.4-0.4v-1.5
			C1487.2,153.6,1487,153.4,1486.8,153.4L1486.8,153.4z M1486.8,153.4"/>
		<path class="st5" d="M1479.1,158c-0.1,0-0.2,0-0.3,0.1c-0.1,0.1-0.1,0.2-0.1,0.3c-0.1,1.1-0.9,2.8-1.5,2.8c-0.3,0-0.6-0.1-0.9-0.3
			c-0.1-0.1-0.3-0.1-0.4,0c-0.3,0.2-0.6,0.3-0.9,0.3c-0.7,0-1.5-2-1.5-2.9c0-0.8,0.7-1.5,1.5-1.5c0.3,0,0.6,0.1,0.9,0.3
			c0.1,0.1,0.3,0.1,0.4,0c0.6-0.5,1.5-0.4,2,0.2c0.1,0.1,0.4,0.1,0.5,0c0.1-0.1,0.2-0.3,0-0.5c-0.4-0.5-1-0.7-1.6-0.7
			c-0.3,0-0.5,0.1-0.8,0.1c0-0.2-0.1-0.3-0.1-0.5h0.9c1,0,1.8-0.8,1.8-1.8c0-0.2-0.2-0.4-0.4-0.4h-1.1c-0.8,0-1.5,0.6-1.8,1.3
			c-0.2-0.2-0.4-0.4-0.6-0.6c-0.2-0.1-0.4-0.1-0.5,0.1c-0.1,0.2-0.1,0.4,0.1,0.5c0.4,0.3,0.8,0.8,0.9,1.3c-0.2-0.1-0.4-0.1-0.7-0.1
			c-0.1,0-0.2,0-0.4,0v-0.5c0-0.8-0.3-1.5-0.8-2c-0.4-0.4-0.6-0.9-0.6-1.5v-1.5c0.2,0,0.4-0.2,0.4-0.4v-1.5c0-0.2-0.2-0.4-0.4-0.4
			h-3.3c-0.2,0-0.4,0.2-0.4,0.4v1.5c0,0.2,0.2,0.4,0.4,0.4v1.5c0,0.6-0.2,1.1-0.6,1.5c-0.5,0.5-0.8,1.3-0.8,2v5.9
			c0,0.2,0.2,0.4,0.4,0.4h4c0.2,0,0.4-0.2,0.4-0.4s-0.2-0.4-0.4-0.4h-3.7v-1.8h3.8c0.3,1.2,1,2.6,2,2.6c0.4,0,0.8-0.1,1.1-0.3
			c0.3,0.2,0.7,0.3,1.1,0.3c1.3,0,2.1-2.3,2.2-3.5c0-0.1,0-0.2-0.1-0.3C1479.3,158,1479.2,158,1479.1,158L1479.1,158z M1477.6,154.1
			h0.7c-0.2,0.4-0.6,0.7-1,0.7h-0.7C1476.8,154.4,1477.2,154.1,1477.6,154.1L1477.6,154.1z M1470.3,149h2.6v0.7h-2.6V149z
			 M1469.2,158.5v-1.8h3.3c0.2,0,0.4-0.2,0.4-0.4c0-0.2-0.2-0.4-0.4-0.4h-3.3v-0.4c0-0.6,0.2-1.1,0.6-1.5c0.5-0.5,0.8-1.3,0.8-2
			v-1.5h1.8v1.5c0,0.8,0.3,1.5,0.8,2c0.4,0.4,0.6,0.9,0.6,1.5v0.7c-0.7,0.4-1.1,1.1-1.1,1.9c0,0.1,0,0.2,0,0.4H1469.2z
			 M1469.2,158.5"/>
	</g>
	<path class="st3" d="M1482.4,149h-3.3c-0.2,0-0.4,0.2-0.4,0.4c0,0.2,0.2,0.4,0.4,0.4h3.3c0.2,0,0.4-0.2,0.4-0.4
		C1482.8,149.1,1482.6,149,1482.4,149L1482.4,149z M1482.4,149"/>
	<path class="st3" d="M1482.4,150.8h-2.2c-0.2,0-0.4,0.2-0.4,0.4s0.2,0.4,0.4,0.4h2.2c0.2,0,0.4-0.2,0.4-0.4
		S1482.6,150.8,1482.4,150.8L1482.4,150.8z M1482.4,150.8"/>
</g>
<g class="st2">
	<path class="st3" d="M656.4,102.6c0-0.6-0.4-1.2-1-1.5c-0.6-0.2-1.3-0.1-1.7,0.3c-0.5,0.5-0.6,1.1-0.3,1.7c0.2,0.6,0.8,1,1.5,1
		C655.6,104.2,656.4,103.5,656.4,102.6L656.4,102.6z M654,102.6c0-0.3,0.2-0.6,0.5-0.7c0.3-0.1,0.6-0.1,0.9,0.2
		c0.2,0.2,0.3,0.6,0.2,0.9c-0.1,0.3-0.4,0.5-0.7,0.5C654.3,103.4,654,103,654,102.6L654,102.6z M654,102.6"/>
	<g>
		<defs>
			<rect id="SVGID_3_" x="639.1" y="81.8" width="21.6" height="24"/>
		</defs>
		<clipPath id="SVGID_4_">
			<use xlink:href="#SVGID_3_"  style="overflow:visible;"/>
		</clipPath>
		<path class="st6" d="M659.6,102.1c-0.2,0-0.4,0.1-0.5,0.3l-0.3,2.5h-6.1c-0.2,0-0.4,0.2-0.4,0.4s0.2,0.4,0.4,0.4h6.4
			c0.2,0,0.4-0.1,0.4-0.3l0.4-2.9c0-0.1,0-0.2-0.1-0.3C659.8,102.2,659.7,102.1,659.6,102.1L659.6,102.1z M659.6,102.1"/>
		<path class="st6" d="M660.7,96.3c-0.1-0.1-0.2-0.1-0.3-0.1h-1.9l0.7-3.5c0,0,0-0.1,0-0.1l0.2-0.9l0.6,1l-0.5,2.3
			c0,0.2,0.1,0.4,0.3,0.5c0,0,0.1,0,0.1,0c0.2,0,0.4-0.1,0.4-0.3l0.5-2.4c0-0.1,0-0.2,0-0.3l-1.2-2c-0.1-0.1-0.2-0.2-0.4-0.2
			c-0.2,0-0.3,0.1-0.3,0.3l-0.3,1.5l-1.5-0.6c-0.1,0-0.2,0-0.4,0c-0.1,0.1-0.2,0.2-0.2,0.3l-0.3,2.7l-0.3-0.1l-0.2-2.6
			c0-0.1,0-0.2-0.1-0.2l0.1-1l0.4-0.1l1.1,0.6c0.1,0.1,0.2,0.1,0.3,0c0.1,0,0.2-0.1,0.2-0.2c0.1-0.1,0.1-0.2,0-0.3
			c0-0.1-0.1-0.2-0.2-0.2l-1.2-0.6c-0.1,0-0.2-0.1-0.3,0l-0.8,0.2c-0.2,0-0.3,0.2-0.3,0.4l0,0.6l-0.5-0.5c-0.1-0.1-0.2-0.1-0.3-0.1
			c-0.1,0-0.2,0.1-0.3,0.2l-0.5,0.6v-0.4c0-0.7-0.5-1.2-1.2-1.2h-0.8V89c0-0.7-0.5-1.2-1.2-1.2h-2v-1.9l3.1-2
			c0.1-0.1,0.1-0.2,0.2-0.3c0-0.1,0-0.2-0.1-0.3l-0.9-1.3c-0.1-0.1-0.2-0.1-0.3-0.2c-0.1,0-0.2,0-0.3,0.1l-3.6,2.4
			c-0.3,0.2-0.5,0.6-0.5,1v2.5h-2c-0.7,0-1.2,0.5-1.2,1.2v0.4h-0.8c-0.7,0-1.2,0.5-1.2,1.2v0.8c0,0,0.2,2.1,0.2,2.1
			c0,0.2,0.2,0.4,0.4,0.4c0,0,0,0,0,0c0.2,0,0.4-0.2,0.4-0.4l-0.2-1.6h3.2c0.2,0,0.4-0.2,0.4-0.4s-0.2-0.4-0.4-0.4h-3.2v-0.4
			c0-0.2,0.2-0.4,0.4-0.4H652c0.2,0,0.4,0.2,0.4,0.4V91H646c-0.2,0-0.4,0.2-0.4,0.4s0.2,0.4,0.4,0.4h6.6l-0.1,0.2
			c-0.1,0.1-0.1,0.2-0.1,0.3l0.1,1.4l-0.1-0.4c0-0.1-0.1-0.2-0.2-0.2l-1.2-0.4c-0.2-0.1-0.4,0-0.5,0.2l-0.2,0.6l-0.2-0.6
			c-0.1-0.2-0.2-0.3-0.4-0.3H648c-0.1,0-0.3,0.1-0.3,0.2c-0.1,0.1-0.1,0.2,0,0.4l0.2,0.7c-0.1,0-0.2,0-0.3,0h-4
			c-0.9,0-1.7,0.3-2.4,0.7c-0.1,0.1-0.2,0.2-0.2,0.3c0,0.1,0,0.2,0.1,0.3c0.1,0.1,0.2,0.2,0.3,0.2c0.1,0,0.2,0,0.3-0.1
			c0.6-0.4,1.3-0.6,2-0.6h4c1.8,0,3.4,1.4,3.6,3.2H640c0.1-0.6,0.3-1.1,0.6-1.6c0.1-0.2,0.1-0.4-0.1-0.5c-0.2-0.1-0.4-0.1-0.5,0.1
			c-0.5,0.7-0.7,1.6-0.7,2.4c0,0.2,0.2,0.4,0.4,0.4h0.1c0.1,0.3,0.2,0.5,0.4,0.8c0,0.1-0.1,0.3-0.1,0.4c0,0.5,0.2,1,0.6,1.4
			c-0.5,0.3-0.7,0.9-0.5,1.4h-0.5c-0.2,0-0.4,0.2-0.4,0.4v0.8c0,1.1,0.9,2,2,2h1.2c0.2,0,0.4-0.2,0.4-0.4s-0.2-0.4-0.4-0.4h-1.2
			c-0.7,0-1.2-0.5-1.2-1.2v-0.4h6.3l0.2,0.2c0.1,0.1,0.2,0.2,0.3,0.2s0.2-0.1,0.3-0.2l1.5-1.9h1.4c0.2,0,0.4,0.2,0.4,0.4
			s-0.2,0.4-0.4,0.4h-0.9c-0.2,0-0.4,0.2-0.4,0.4s0.2,0.4,0.4,0.4h2.1v0.4c0,0.7-0.5,1.2-1.2,1.2h-6c-0.2,0-0.4,0.2-0.4,0.4
			s0.2,0.4,0.4,0.4h6c1.1,0,2-0.9,2-2V103c0-0.2-0.2-0.4-0.4-0.4h-0.5c0.2-0.5,0-1.1-0.5-1.4c0.4-0.4,0.6-0.9,0.6-1.4
			c0-0.1,0-0.3-0.1-0.4c0.2-0.2,0.4-0.5,0.4-0.8h0c0,0,0,0,0.1,0c0.8,0.8,2,1.2,3.1,1.2c2,0,3.7-1.2,4-2.8h1.2l-0.5,3.9
			c0,0.1,0,0.2,0.1,0.3c0.1,0.1,0.2,0.1,0.3,0.2c0,0,0,0,0.1,0c0.2,0,0.4-0.1,0.4-0.3l0.6-4.3C660.8,96.5,660.7,96.4,660.7,96.3
			L660.7,96.3z M646.4,85.3c0-0.1,0.1-0.3,0.2-0.3l3.3-2.2l0.4,0.7l-2.9,1.9c-0.1,0.1-0.2,0.2-0.2,0.3v2.1h-0.8V85.3z M643.2,89.4
			V89c0-0.2,0.2-0.4,0.4-0.4h6.4c0.2,0,0.4,0.2,0.4,0.4v0.4H643.2z M655.5,95.1l0.8,0.2l-0.2,3.5c-0.3,0.1-0.5,0.2-0.8,0.2
			L655.5,95.1z M654,91.2l0.8,0.8l0.2,2.3c0,0,0,0,0,0c-0.1,0.1-0.2,0.2-0.2,0.3l-0.2,4.4c-0.3,0-0.5-0.1-0.8-0.1l-0.5-6.5L654,91.2
			z M648.5,93.4h0.8l0.4,0.9c-0.3-0.2-0.6-0.3-0.9-0.4L648.5,93.4z M650.3,99.7c0,0,0,0.1,0,0.1c0,0.7-0.5,1.2-1.2,1.2H642
			c-0.6,0-1.2-0.5-1.2-1.2l0,0c0.5,0.2,1,0.2,1.5,0l0.6-0.3c0.1-0.1,0.3-0.1,0.4,0l0.8,0.4c0.4,0.2,0.8,0.2,1.1,0l0.8-0.4
			c0.1-0.1,0.3-0.1,0.4,0l0.8,0.4c0.4,0.2,0.8,0.2,1.1,0l0.8-0.4c0.1-0.1,0.3-0.1,0.4,0C649.9,99.6,650.1,99.7,650.3,99.7
			L650.3,99.7z M641.2,102.6c-0.2,0-0.4-0.2-0.4-0.4s0.2-0.4,0.4-0.4h3.8l0.6,0.8H641.2z M646.8,102.8l-0.8-1h1.5L646.8,102.8z
			 M650.5,98.8C650.5,98.8,650.5,98.8,650.5,98.8C650.5,98.8,650.5,98.8,650.5,98.8C650.5,98.8,650.5,98.8,650.5,98.8
			c-0.2,0.1-0.3,0.1-0.4,0c-0.4-0.2-0.8-0.2-1.1,0l-0.8,0.4c-0.1,0.1-0.3,0.1-0.4,0l-0.8-0.4c-0.4-0.2-0.8-0.2-1.1,0l-0.8,0.4
			c-0.1,0.1-0.3,0.1-0.4,0l-0.8-0.4c-0.4-0.2-0.8-0.2-1.1,0l-0.6,0.3c-0.3,0.1-0.5,0.1-0.8,0l-0.3-0.2c-0.2-0.1-0.3-0.2-0.4-0.4
			h10.3C650.7,98.7,650.6,98.8,650.5,98.8L650.5,98.8z M651.9,97.7c-0.1-0.6-0.3-1.2-0.6-1.8l-0.5-1.7l0.2-0.7l0.6,0.2l1.1,3.1
			l0.1,1.7C652.5,98.3,652.2,98,651.9,97.7L651.9,97.7z M657,98.3l0.2-3.3c0-0.2-0.1-0.4-0.3-0.4l0,0l0.3-2.2l1.2,0.5l-1,5.2
			C657.2,98.1,657.1,98.2,657,98.3L657,98.3z M657,98.3"/>
	</g>
	<path class="st3" d="M646.8,96.2c0,0.2-0.2,0.4-0.4,0.4s-0.4-0.2-0.4-0.4s0.2-0.4,0.4-0.4S646.8,96,646.8,96.2L646.8,96.2z
		 M646.8,96.2"/>
	<path class="st3" d="M645.2,95.8c0,0.2-0.2,0.4-0.4,0.4s-0.4-0.2-0.4-0.4s0.2-0.4,0.4-0.4S645.2,95.6,645.2,95.8L645.2,95.8z
		 M645.2,95.8"/>
	<path class="st3" d="M644,96.6c0,0.2-0.2,0.4-0.4,0.4s-0.4-0.2-0.4-0.4s0.2-0.4,0.4-0.4S644,96.4,644,96.6L644,96.6z M644,96.6"/>
	<path class="st3" d="M650,96.6c0,0.2-0.2,0.4-0.4,0.4s-0.4-0.2-0.4-0.4s0.2-0.4,0.4-0.4S650,96.4,650,96.6L650,96.6z M650,96.6"/>
	<path class="st3" d="M642.4,96.2c0,0.2-0.2,0.4-0.4,0.4s-0.4-0.2-0.4-0.4s0.2-0.4,0.4-0.4S642.4,96,642.4,96.2L642.4,96.2z
		 M642.4,96.2"/>
	<path class="st3" d="M648.4,95.8c0,0.2-0.2,0.4-0.4,0.4s-0.4-0.2-0.4-0.4s0.2-0.4,0.4-0.4S648.4,95.6,648.4,95.8L648.4,95.8z
		 M648.4,95.8"/>
</g>
<g class="st2">
	<g>
		<path class="st3" d="M1082.6,52.5c-0.1-0.1-0.1-0.3-0.1-0.5v-0.3c0-2.9,0.5-5.7,1.3-8.5h6c-0.3,0.8-0.5,1.6-0.7,2.4l0.5,0.1
			c0.2-0.9,0.4-1.7,0.7-2.5h0.6c0.6,0,1.1-0.5,1.1-1.1v-0.8c0-0.1,0-0.1-0.1-0.2c-0.1-0.1-0.1-0.1-0.2-0.1h-1.4
			c0-0.6,0.5-1.1,1.1-1.1h0.1c0.5,0,0.9,0.3,1.1,0.8l0.4,1.5c0.1,0.4,0.2,0.7,0.3,1.1l0.5-0.1c-0.1-0.4-0.2-0.7-0.3-1.1l-0.4-1.5
			c-0.2-0.7-0.9-1.2-1.6-1.2h-7.5c-0.9,0-1.7,0.7-1.7,1.7v1.1c0,0.5,0.3,0.9,0.8,1.1c-0.9,2.8-1.3,5.6-1.3,8.5V52
			c0,0.2,0.1,0.5,0.2,0.7L1082.6,52.5z M1091.6,41.5v0.6c0,0.3-0.2,0.6-0.6,0.6c-0.3,0-0.6-0.2-0.6-0.6v-0.6H1091.6z M1083,42.1V41
			c0-0.6,0.5-1.1,1.1-1.1h6.2c-0.3,0.3-0.4,0.7-0.4,1.1v1.1c0,0.2,0.1,0.4,0.1,0.6h-6.5C1083.3,42.6,1083,42.4,1083,42.1L1083,42.1z
			 M1083,42.1"/>
		<path class="st3" d="M1095.8,46.7l-0.1,0.5c1.7,0.4,2.3,0.9,2.3,1.2c0,0.3-0.4,0.6-1.1,0.9c-0.1-0.4-0.6-0.8-1.5-1l-0.2,0.5
			c0.8,0.2,1.1,0.5,1.2,0.7c-1.1,0.3-2.7,0.6-4.7,0.6c-2,0-3.6-0.2-4.7-0.6c0.1-0.3,0.8-0.7,2.5-0.9l-0.1-0.5
			c-0.8,0.1-1.6,0.3-2.1,0.5c-0.5,0.2-0.8,0.5-0.9,0.8c-0.7-0.3-1.1-0.6-1.1-0.9c0-0.1,0.1-0.5,1.3-1c0.9-0.3,2.2-0.6,3.7-0.7l0-0.6
			c-1.5,0.1-2.8,0.3-3.8,0.7c-1.4,0.5-1.7,1.1-1.7,1.5c0,0.6,0.1,1.2,0.3,1.7l0.6,1.4l0.5-0.2l-0.6-1.4c-0.1-0.2-0.1-0.3-0.2-0.5
			c0.4,0.2,0.8,0.4,1.5,0.6c1.3,0.4,3,0.6,4.8,0.6c1.8,0,3.5-0.2,4.8-0.6c0.6-0.2,1.1-0.4,1.5-0.6c0,0.2-0.1,0.3-0.2,0.5l-0.9,2.4
			c-0.1,0.2-0.2,0.4-0.4,0.6l0.4,0.3c0.2-0.2,0.3-0.5,0.4-0.8l0.9-2.4c0.2-0.5,0.3-1.1,0.3-1.7C1098.5,47.4,1096.8,46.9,1095.8,46.7
			L1095.8,46.7z M1095.8,46.7"/>
		<path class="st3" d="M1093.6,44.5c-1.4,0.5-2.5,1.5-3.1,2.8l-0.8,1.6l0.5,0.2l0.8-1.6c0.6-1.1,1.5-2,2.6-2.4c0,0.1,0,0.1,0.1,0.2
			c-0.8,0.6-1.4,1.5-1.9,2.5l-0.8,1.6l0.5,0.3l0.8-1.6c0.5-0.9,1.1-1.7,1.8-2.3c0,0,0.1,0,0.1,0.1c0,0,0.1,0,0.1,0.1
			c-0.1,0.2-0.2,0.4-0.3,0.6c-0.3,0.6-0.6,1.1-0.9,1.7l-0.6,1.2l0.5,0.3l0.6-1.2c0.3-0.6,0.6-1.2,0.9-1.7c0.1-0.3,0.3-0.5,0.4-0.8
			c0.1,0.9-0.2,1.9-0.6,2.7l-0.4,0.7l0.5,0.3l0.4-0.7c0.5-1,0.8-2.1,0.7-3.2c0.1-0.1,0.2-0.2,0.3-0.3l2.2-3.6
			c0.3-0.5,0.2-1.2-0.4-1.5c-0.5-0.3-1.2-0.2-1.5,0.4l-2.2,3.6C1093.6,44.4,1093.6,44.4,1093.6,44.5L1093.6,44.5z M1094.2,44.6
			l2.2-3.6c0.1-0.1,0.2-0.2,0.3-0.2c0.1,0,0.3,0,0.4,0.1c0.1,0.1,0.2,0.2,0.2,0.3c0,0.1,0,0.3-0.1,0.4l-2.2,3.6
			c-0.1,0.1-0.2,0.2-0.3,0.2c-0.1,0-0.3,0-0.4-0.1c-0.1-0.1-0.2-0.2-0.2-0.3C1094.1,44.8,1094.1,44.7,1094.2,44.6L1094.2,44.6z
			 M1094.2,44.6"/>
		<path class="st3" d="M1095.7,53.2c-0.2-0.2-0.5-0.3-0.8-0.3l-0.3,0c-0.4-0.6-1-0.9-1.7-0.9h-8c-0.7,0-1.3,0.4-1.7,0.9l-0.3,0
			c-0.3,0-0.6,0.1-0.8,0.3c-0.2,0.2-0.3,0.4-0.4,0.7c0,0.3,0.1,0.6,0.3,0.8c0.2,0.2,0.5,0.3,0.7,0.3c0,0,0.1,0,0.1,0l0.3,0
			c0.4,0.6,1,0.9,1.7,0.9h8c0.5,0,1-0.2,1.4-0.6c0.1-0.1,0.2-0.2,0.3-0.4l0.3,0c0,0,0.1,0,0.1,0c0.4,0,0.8-0.3,1-0.7
			C1096.1,53.9,1096,53.5,1095.7,53.2L1095.7,53.2z M1083,54.4c-0.1,0-0.3,0-0.4-0.1c-0.1-0.1-0.2-0.2-0.2-0.3c0-0.1,0-0.3,0.1-0.4
			c0.1-0.1,0.2-0.1,0.3-0.1c0,0,0,0,0,0l1.7,0.2c0.2,0,0.3,0.2,0.3,0.3c0,0.2-0.1,0.3-0.3,0.3L1083,54.4z M1083.9,54.9l0.8-0.1
			c0.5,0,0.8-0.4,0.8-0.9c0-0.5-0.3-0.8-0.8-0.9l-0.8-0.1c0,0,0,0,0,0c0.3-0.3,0.8-0.5,1.2-0.4c0.5,0.1,0.8,0.4,1,0.8
			c0.2,0.4,0.1,0.9-0.1,1.3c-0.3,0.4-0.7,0.6-1.1,0.6C1084.6,55.3,1084.2,55.2,1083.9,54.9L1083.9,54.9z M1093.9,54.9
			c-0.3,0.3-0.6,0.4-1,0.4h-6.7c0.4-0.4,0.6-0.9,0.6-1.4s-0.2-1-0.6-1.4h6.7c0.6,0,1.1,0.3,1.3,0.9
			C1094.4,53.9,1094.3,54.5,1093.9,54.9L1093.9,54.9z M1095,54.4C1094.9,54.4,1094.9,54.4,1095,54.4l-0.1,0c0.1-0.3,0.1-0.6,0-0.9
			l0.1,0c0.1,0,0.3,0,0.4,0.1c0.1,0.1,0.2,0.2,0.2,0.3c0,0.1,0,0.3-0.1,0.4C1095.2,54.4,1095.1,54.4,1095,54.4L1095,54.4z
			 M1095,54.4"/>
	</g>
</g>
</svg>
