<?xml version="1.0" encoding="utf-8"?>
<!-- Generator: Adobe Illustrator 22.0.1, SVG Export Plug-In . SVG Version: 6.00 Build 0)  -->
<svg version="1.1" id="Camada_1" xmlns="http://www.w3.org/2000/svg" xmlns:xlink="http://www.w3.org/1999/xlink" x="0px" y="0px"
	 viewBox="0 0 362 293.9" style="enable-background:new 0 0 362 293.9;" xml:space="preserve">
<style type="text/css">
	.st0{opacity:5.000000e-02;fill:url(#SVGID_1_);enable-background:new    ;}
	.st1{fill:url(#SVGID_2_);}
</style>
<linearGradient id="SVGID_1_" gradientUnits="userSpaceOnUse" x1="5.001163e-02" y1="146.9935" x2="362" y2="146.9935" gradientTransform="matrix(1 0 0 -1 0 293.9685)">
	<stop  offset="7.500810e-08" style="stop-color:#FFC107"/>
	<stop  offset="1" style="stop-color:#DE4437"/>
</linearGradient>
<path class="st0" d="M362,114.3c-0.4,0.4-0.8,0.9-1.3,1.3L220.1,256.3c-50.2,50.2-132.3,50.2-182.4,0l0,0
	c-50.2-50.2-50.2-132.3,0-182.4L111.5,0H362V114.3z"/>
<linearGradient id="SVGID_2_" gradientUnits="userSpaceOnUse" x1="5.001163e-02" y1="158.4935" x2="362" y2="158.4935" gradientTransform="matrix(1 0 0 -1 0 293.9685)">
	<stop  offset="7.500810e-08" style="stop-color:#AAE8FF"/>
	<stop  offset="1" style="stop-color:#3399FF"/>
</linearGradient>
<path class="st1" d="M362,91.3c-0.4,0.4-0.8,0.9-1.3,1.3L220.1,233.3c-50.2,50.2-132.3,50.2-182.4,0l0,0
	c-50.2-50.2-50.2-132.3,0-182.4L88.5,0H362V91.3z"/>
</svg>
